Data Wrangling 101 Lesson.
…
The only other variables we will be needing to answer this question are year, percent_female, and wage_percent_of_male.

Lastly, we want to ensure that the data is organized by year so we can see the progression over time.

Thus the commands that we need to use are filter, select, and group_by (we use what is called a pipe operator (%>%) to connect these commands).

simplified_jobs_gender = jobs_gender %>% 
  select(year, percent_female, wage_percent_of_male, major_category, occupation) %>% #selects subset columns
  filter(major_category %in% c("Healthcare Practitioners and Technical", "Computer, Engineering, and Science")) %>% 
  group_by(year) 
#filters the two subset rows and organizes by year
  
simplified_jobs_gender

## # A tibble: 364 x 5
## # Groups:   year [4]
##     year percent_female wage_percent_of_ major_category     occupation         
##    <dbl>          <dbl>             <dbl> <chr>              <chr>              
##  1  2013           29                NA   Computer, Enginee Computer and infor
##  2  2013           36.4              85.4 Computer, Enginee Computer systems a
##  3  2013           20                92.9 Computer, Enginee Information securi
##  4  2013           20.3              92.1 Computer, Enginee Computer programme
##  5  2013           19.8              86.5 Computer, Enginee Software developer
##  6  2013           29.9              87.7 Computer, Enginee Web developers     
##  7  2013           26                90.8 Computer, Enginee Computer support s
##  8  2013           38.8              72.5 Computer, Enginee Database administr
##  9  2013           17.9              90.3 Computer, Enginee Network and comput
## 10  2013            8.2              97.8 Computer, Enginee Computer network a
## #  with 354 more rows

After running that code you will find that there are some rows that have missing values in various columns, to simplify the data further we can remove any row that is missing values by adding a following pipe operator to drop_na().

simplified_jobs_gender = jobs_gender %>% 
  select(year, percent_female, wage_percent_of_male, major_category, occupation) %>% 
  filter(major_category %in% c("Healthcare Practitioners and Technical", "Computer, Engineering, and Science")) %>% 
  drop_na() #removes rows with N/A
  
simplified_jobs_gender

## # A tibble: 252 x 5
##     year percent_female wage_percent_of_ major_category     occupation         
##    <dbl>          <dbl>             <dbl> <chr>              <chr>              
##  1  2013           36.4              85.4 Computer, Enginee Computer systems a
##  2  2013           20                92.9 Computer, Enginee Information securi
##  3  2013           20.3              92.1 Computer, Enginee Computer programme
##  4  2013           19.8              86.5 Computer, Enginee Software developer
##  5  2013           29.9              87.7 Computer, Enginee Web developers     
##  6  2013           26                90.8 Computer, Enginee Computer support s
##  7  2013           38.8              72.5 Computer, Enginee Database administr
##  8  2013           17.9              90.3 Computer, Enginee Network and comput
##  9  2013            8.2              97.8 Computer, Enginee Computer network a
## 10  2013           21.7              97.5 Computer, Enginee Computer , all oth
## #  with 242 more rows
…
Using these two commands with the count() function however, allows us to clearly see just how few wages are close to that of men in the same field.

Combine the datasets.

The next step in answering our question is to join the datasets that we are looking at, so together they can be used to create some sort of data visualization that answers our initial question.

In this case we will be using a left_join command so that we can include all rows in one table (the left table), and the rows in the other table that contain the matching key variable. In this case the left table will be our jobs_gender table and our second table will be the employed_gender dataset. The two will be connected by the key variable year.

women_jobs_joined = simplified_jobs_gender %>% 
  left_join(employed_gender, by = c("year" = "year")) 
#combines the two datasets with the key "year"
women_jobs_joined 

## # A tibble: 252 x 11
##     year percent_female wage_percent_of_ major_category     occupation         
##    <dbl>          <dbl>             <dbl> <chr>              <chr>              
##  1  2013           36.4              85.4 Computer, Enginee Computer systems a
##  2  2013           20                92.9 Computer, Enginee Information securi
##  3  2013           20.3              92.1 Computer, Enginee Computer programme
##  4  2013           19.8              86.5 Computer, Enginee Software developer
##  5  2013           29.9              87.7 Computer, Enginee Web developers     
##  6  2013           26                90.8 Computer, Enginee Computer support s
##  7  2013           38.8              72.5 Computer, Enginee Database administr
##  8  2013           17.9              90.3 Computer, Enginee Network and comput
##  9  2013            8.2              97.8 Computer, Enginee Computer network a
## 10  2013           21.7              97.5 Computer, Enginee Computer , all oth
## #  with 242 more rows, and 6 more variables: total_full_time <dbl>,
## #   total_part_time <dbl>, full_time_female <dbl>, part_time_female <dbl>,
## #   full_time_male <dbl>, part_time_male <dbl>
…
